<?xml version="1.0" standalone="no"?>
<!DOCTYPE svg PUBLIC "-//W3C//DTD SVG 20010904//EN"
 "http://www.w3.org/TR/2001/REC-SVG-20010904/DTD/svg10.dtd">
<svg version="1.0" xmlns="http://www.w3.org/2000/svg"
 width="48.000000pt" height="56.000000pt" viewBox="0 0 48.000000 56.000000"
 preserveAspectRatio="xMidYMid meet">

<g transform="translate(0.000000,56.000000) scale(0.100000,-0.100000)"
fill="" stroke="none">
<path d="M0 364 c0 -188 1 -195 18 -175 16 21 122 71 150 71 6 0 12 -7 12 -15
0 -18 -52 -52 -92 -60 -33 -8 -48 -31 -48 -74 0 -45 63 -66 200 -66 137 0 200
21 200 66 0 43 -15 66 -48 74 -40 8 -92 42 -92 60 0 8 6 15 13 15 27 0 133
-50 149 -71 17 -20 18 -13 18 175 l0 196 -92 0 c-90 0 -92 -1 -72 -18 43 -35
60 -103 44 -179 -20 -90 -97 -134 -173 -98 -47 22 -71 72 -71 150 0 64 14 100
48 127 20 17 18 18 -71 18 l-93 0 0 -196z"/>
<path d="M181 494 c-16 -20 -21 -41 -21 -84 0 -76 25 -110 79 -110 54 0 74 26
79 103 3 52 0 66 -18 90 -30 38 -90 38 -119 1z"/>
<path d="M0 26 c0 -25 1 -26 68 -26 l67 1 -50 18 c-27 10 -58 21 -67 26 -15 6
-18 2 -18 -19z"/>
<path d="M445 38 c-10 -6 -37 -17 -60 -24 l-40 -13 68 0 c65 -1 67 0 67 24 0
28 -6 30 -35 13z"/>
</g>
</svg>
